{
  "type": "FeatureCollection",
  "features": [
    {
      "type": "Feature",
      "properties": {
        "_umap_options": {
          "iconUrl": "https://acclabecu.org/pddd-map/aidesep.png"
        },
        "name": "AIDESEP",
        "description": "**Mas Información :** [[https://coicamazonia.org/somos/|Ver más]]"
      },
      "geometry": {
        "type": "Point",
        "coordinates": [
          -74.487305,
          -3.469557
        ]
      }
    },
    {
      "type": "Feature",
      "properties": {
        "_umap_options": {
          "iconUrl": "https://acclabecu.org/pddd-map/apa.png"
        },
        "name": "APA",
        "description": "**Mas Información :** [[https://coicamazonia.org/somos/|Ver más]]"
      },
      "geometry": {
        "type": "Point",
        "coordinates": [
          -58.798828,
          3.557283
        ]
      }
    },
    {
      "type": "Feature",
      "properties": {
        "_umap_options": {
          "iconUrl": "https://acclabecu.org/pddd-map/cidob.png",
          "popupShape": "Panel"
        },
        "description": "**Mas Información :** [[https://coicamazonia.org/somos/|Ver más]]",
        "name": "CIDOB"
      },
      "geometry": {
        "type": "Point",
        "coordinates": [
          -66.621094,
          -12.425848
        ]
      }
    },
    {
      "type": "Feature",
      "properties": {
        "_umap_options": {
          "iconUrl": "https://acclabecu.org/pddd-map/coiab.png"
        },
        "description": "**Mas Información :** [[https://coicamazonia.org/somos/|Ver más]]",
        "name": "COIAB"
      },
      "geometry": {
        "type": "Point",
        "coordinates": [
          -64.511719,
          -1.669686
        ]
      }
    },
    {
      "type": "Feature",
      "properties": {
        "description": "**Mas Información :** [[https://coicamazonia.org/somos/||Ver más]]\n",
        "_umap_options": {
          "showLabel": null,
          "popupTemplate": "Default",
          "iconUrl": "https://acclabecu.org/pddd-map/confeniae.png",
          "labelDirection": "auto",
          "labelInteractive": true
        },
        "name": "CONFENIAE"
      },
      "geometry": {
        "type": "Point",
        "coordinates": [
          -76.376953,
          -1.493971
        ]
      }
    },
    {
      "type": "Feature",
      "properties": {
        "_umap_options": {
          "iconUrl": "https://acclabecu.org/pddd-map/foag.png"
        },
        "name": "FOAG",
        "description": "**Mas Información :** [[https://coicamazonia.org/somos/|Ver más]]"
      },
      "geometry": {
        "type": "Point",
        "coordinates": [
          -53.129883,
          4.390229
        ]
      }
    },
    {
      "type": "Feature",
      "properties": {
        "_umap_options": {
          "iconUrl": "https://acclabecu.org/pddd-map/ois.png"
        },
        "description": "**Mas Información :** [[https://coicamazonia.org/somos/|Ver más]]",
        "name": "OIS"
      },
      "geometry": {
        "type": "Point",
        "coordinates": [
          -55.898438,
          3.557283
        ]
      }
    },
    {
      "type": "Feature",
      "properties": {
        "_umap_options": {
          "iconUrl": "https://acclabecu.org/pddd-map/opiac.png"
        },
        "name": "OPIAC",
        "description": "**Mas Información :** [[https://coicamazonia.org/somos/|Ver más]]"
      },
      "geometry": {
        "type": "Point",
        "coordinates": [
          -71.71875,
          1.01069
        ]
      }
    },
    {
      "type": "Feature",
      "properties": {
        "_umap_options": {
          "iconUrl": "https://acclabecu.org/pddd-map/orpia.png"
        },
        "name": "ORPIA",
        "description": "**Mas Información :** [[https://coicamazonia.org/somos/|Ver más]]"
      },
      "geometry": {
        "type": "Point",
        "coordinates": [
          -66.005859,
          4.302591
        ]
      }
    }
  ]
}